/* the humans responsible & colophon */
/* humanstxt.org */


/* TEAM */
  Nachooooo
  Site: torneoluisjuan.com
  Twitter: nachoelg
  Location: Grana

/* THANKS */
  Names (& URL):

/* SITE */
  Standards: HTML5, CSS3
  Components: Modernizr, jQuery
  Software:



                               -o/-
                               +oo//-
                              :ooo+//:
                             -ooooo///-
                             /oooooo//:
                            :ooooooo+//-
                           -+oooooooo///-
           -://////////////+oooooooooo++////////////::
            :+ooooooooooooooooooooooooooooooooooooo+:::-
              -/+ooooooooooooooooooooooooooooooo+/::////:-
                -:+oooooooooooooooooooooooooooo/::///////:-
                  --/+ooooooooooooooooooooo+::://////:-
                     -:+ooooooooooooooooo+:://////:--
                       /ooooooooooooooooo+//////:-
                      -ooooooooooooooooooo////-
                      /ooooooooo+oooooooooo//:
                     :ooooooo+/::/+oooooooo+//-
                    -oooooo/::///////+oooooo///-
                    /ooo+::://////:---:/+oooo//:
                   -o+/::///////:-      -:/+o+//-
                   :-:///////:-            -:/://
                     -////:-                 --//:
                       --                       -: